<?xml version="1.0" encoding="utf-8"?>
<!-- Generator: Adobe Illustrator 15.1.0, SVG Export Plug-In . SVG Version: 6.00 Build 0)  -->
<!DOCTYPE svg PUBLIC "-//W3C//DTD SVG 1.1//EN" "http://www.w3.org/Graphics/SVG/1.1/DTD/svg11.dtd">
<svg version="1.1" id="Layer_1" xmlns="http://www.w3.org/2000/svg" xmlns:xlink="http://www.w3.org/1999/xlink" x="0px" y="0px"
	 width="24px" height="17px" viewBox="0 0 24 17" enable-background="new 0 0 24 17" xml:space="preserve">
<g id="revert">
	<path fill="#CCCCCC" d="M8.445,2.47C8.373,2.69,8.248,3.093,8.242,3.093C8.176,3.091,7.908,3.156,7.867,3.165
		C7.66,3.038,7.302,2.73,7.301,2.73c0,0-0.434,0.205-0.62,0.336C6.688,3.295,6.745,3.72,6.738,3.73
		c-0.057,0.039-0.314,0.285-0.33,0.29C6.27,4.001,5.876,3.898,5.803,3.896C5.802,3.896,5.8,3.897,5.799,3.897
		c-0.006-0.001-0.301,0.409-0.41,0.594c0.125,0.193,0.272,0.35,0.362,0.569C5.734,5.217,5.658,5.313,5.647,5.476
		C5.563,5.51,5.027,5.675,4.978,5.69C4.963,5.771,4.968,6.254,4.98,6.434c0.217,0.075,0.422,0.164,0.619,0.259
		c0.029,0.145,0.045,0.302,0.103,0.414c-0.133,0.186-0.311,0.327-0.438,0.52c0.116,0.212,0.183,0.413,0.335,0.646
		c0.22-0.011,0.425-0.037,0.619-0.076c0.133,0.091,0.215,0.232,0.336,0.337c-0.04,0.209-0.092,0.408-0.13,0.62
		C6.52,9.247,6.93,9.566,7.018,9.566c0.173-0.119,0.356-0.312,0.568-0.388c0.117,0.06,0.249,0.103,0.402,0.126
		c0,0,0.159,0.468,0.209,0.679c0.229,0.039,0.487-0.002,0.753-0.001V9.981c0.001,0,0.002,0,0.004,0
		c0.072-0.221,0.184-0.4,0.257-0.62c0.007,0,0.349-0.064,0.39-0.074c0.211,0.104,0.564,0.436,0.565,0.435c0,0,0,0.001,0.001,0.001
		c0.202-0.116,0.512-0.275,0.618-0.336c-0.039-0.409-0.039-0.409-0.074-0.634c0.005-0.012,0.332-0.317,0.348-0.321
		c0.138,0.019,0.605,0.123,0.605,0.122c0.009,0.001,0.014,0.003,0.02,0.005c0.016-0.022,0.283-0.413,0.394-0.598
		c-0.124-0.19-0.273-0.351-0.362-0.569c0.018-0.156,0.092-0.254,0.104-0.415c0.084-0.034,0.621-0.197,0.671-0.213
		c0.017-0.081,0.011-0.565-0.003-0.744c-0.218-0.075-0.422-0.164-0.62-0.259c-0.028-0.145-0.045-0.301-0.103-0.414
		c0.134-0.186,0.312-0.327,0.438-0.519c-0.115-0.212-0.193-0.462-0.336-0.647c-0.381,0.034-0.424,0.04-0.618,0.078
		c-0.132-0.092-0.214-0.232-0.336-0.336c0.04-0.211,0.093-0.409,0.129-0.622c-0.161-0.092-0.61-0.414-0.698-0.414
		c-0.134,0.12-0.268,0.254-0.462,0.389c-0.116-0.06-0.248-0.104-0.402-0.127c0,0-0.118-0.466-0.168-0.678 M6.968,6.253
		C6.965,6.07,6.986,5.901,7.026,5.745c0.001-0.003,0.001-0.006,0.002-0.01C7.041,5.691,7.056,5.649,7.07,5.607
		C7.247,5.163,7.598,4.8,8.036,4.61c0.247-0.1,0.514-0.146,0.779-0.138c0.047,0.003,0.096,0.005,0.142,0.011
		C8.978,4.485,9,4.487,9.022,4.49C9.294,4.531,9.538,4.621,9.7,4.725c0.42,0.268,0.792,0.829,0.8,1.477
		c0.005,0.182-0.016,0.351-0.055,0.507c-0.002,0.003-0.003,0.007-0.004,0.011c-0.013,0.044-0.028,0.085-0.042,0.127
		c-0.176,0.445-0.528,0.808-0.966,0.997c-0.246,0.1-0.513,0.146-0.778,0.139C8.608,7.979,8.559,7.977,8.513,7.97
		C8.492,7.968,8.47,7.966,8.448,7.963C8.174,7.922,7.932,7.832,7.769,7.728C7.35,7.461,6.978,6.899,6.968,6.253z"/>
</g>
<g id="revert_1_">
	<path fill="#CCCCCC" d="M15.945,7.5c-0.072,0.22-0.197,0.623-0.203,0.623c-0.065-0.002-0.334,0.063-0.375,0.072
		C15.16,8.068,14.802,7.76,14.801,7.76c0,0-0.434,0.205-0.62,0.336c0.007,0.229,0.063,0.653,0.057,0.664
		c-0.057,0.039-0.314,0.285-0.33,0.291c-0.138-0.02-0.531-0.123-0.604-0.125c-0.002,0.001-0.004,0.002-0.004,0.002
		c-0.006-0.001-0.301,0.409-0.41,0.594c0.125,0.193,0.271,0.35,0.361,0.568c-0.017,0.156-0.093,0.254-0.104,0.416
		c-0.084,0.033-0.619,0.199-0.67,0.215c-0.015,0.08-0.009,0.563,0.003,0.742c0.217,0.076,0.422,0.164,0.619,0.26
		c0.028,0.145,0.045,0.301,0.103,0.414c-0.133,0.186-0.311,0.326-0.438,0.52c0.115,0.211,0.182,0.412,0.335,0.645
		c0.22-0.01,0.425-0.037,0.619-0.076c0.133,0.092,0.215,0.232,0.336,0.338c-0.04,0.209-0.092,0.408-0.13,0.619
		c0.096,0.096,0.506,0.414,0.594,0.414c0.173-0.119,0.356-0.311,0.568-0.387c0.117,0.059,0.249,0.102,0.402,0.125
		c0,0,0.159,0.469,0.209,0.68c0.229,0.039,0.487-0.002,0.753-0.002l0,0c0.001,0,0.002,0,0.004,0c0.072-0.221,0.184-0.4,0.257-0.621
		c0.007,0,0.349-0.064,0.39-0.074c0.211,0.104,0.564,0.436,0.565,0.436c0,0,0,0,0.001,0c0.202-0.115,0.512-0.275,0.618-0.336
		c-0.039-0.408-0.039-0.408-0.074-0.633c0.005-0.012,0.332-0.318,0.348-0.322c0.138,0.02,0.605,0.123,0.605,0.123
		c0.009,0,0.014,0.002,0.02,0.004c0.016-0.021,0.283-0.412,0.394-0.598c-0.124-0.189-0.273-0.35-0.362-0.568
		c0.018-0.156,0.092-0.254,0.104-0.416c0.084-0.033,0.621-0.197,0.671-0.213c0.017-0.08,0.011-0.564-0.003-0.744
		c-0.218-0.074-0.422-0.164-0.62-0.258c-0.028-0.145-0.045-0.301-0.103-0.414c0.134-0.186,0.312-0.328,0.438-0.52
		c-0.115-0.211-0.193-0.461-0.336-0.646c-0.381,0.033-0.424,0.039-0.618,0.078c-0.132-0.092-0.214-0.232-0.336-0.336
		c0.04-0.211,0.093-0.409,0.129-0.622c-0.161-0.092-0.61-0.414-0.698-0.414c-0.134,0.12-0.268,0.254-0.462,0.389
		c-0.116-0.06-0.248-0.104-0.402-0.127c0,0-0.118-0.466-0.168-0.678 M14.468,11.283c-0.003-0.184,0.018-0.352,0.058-0.508
		c0.001-0.004,0.001-0.006,0.002-0.01c0.013-0.045,0.028-0.086,0.042-0.129c0.177-0.443,0.528-0.807,0.966-0.996
		c0.247-0.1,0.514-0.146,0.779-0.139c0.047,0.004,0.096,0.006,0.142,0.012c0.021,0.002,0.044,0.004,0.065,0.006
		c0.272,0.041,0.516,0.131,0.678,0.234c0.42,0.268,0.792,0.83,0.8,1.477c0.005,0.182-0.016,0.352-0.055,0.508
		c-0.002,0.002-0.003,0.006-0.004,0.01c-0.013,0.045-0.028,0.086-0.042,0.127c-0.176,0.445-0.528,0.809-0.966,0.998
		c-0.246,0.1-0.513,0.146-0.778,0.139c-0.047-0.004-0.096-0.006-0.142-0.012c-0.021-0.002-0.043-0.004-0.065-0.008
		c-0.273-0.041-0.516-0.131-0.679-0.234C14.85,12.49,14.478,11.93,14.468,11.283z"/>
</g>
</svg>
