<?xml version="1.0" encoding="utf-8"?>
<!-- Generator: Adobe Illustrator 15.1.0, SVG Export Plug-In . SVG Version: 6.00 Build 0)  -->
<!DOCTYPE svg PUBLIC "-//W3C//DTD SVG 1.1//EN" "http://www.w3.org/Graphics/SVG/1.1/DTD/svg11.dtd">
<svg version="1.1" id="Layer_1" xmlns="http://www.w3.org/2000/svg" xmlns:xlink="http://www.w3.org/1999/xlink" x="0px" y="0px"
	 width="134px" height="151px" viewBox="0 0 134 151" enable-background="new 0 0 134 151" xml:space="preserve">
<polygon fill="#CCCCCC" points="59.689,57.391 66.464,42.5 74.162,56.935 90.418,58.776 79.069,70.559 82.341,86.588 67.628,79.435 
	53.396,87.5 55.65,71.297 43.582,60.253 "/>
</svg>
