<?xml version="1.0" encoding="utf-8"?>
<!DOCTYPE svg PUBLIC "-//W3C//DTD SVG 1.1//EN" "http://www.w3.org/Graphics/SVG/1.1/DTD/svg11.dtd">
<svg version="1.1" id="Layer_1" xmlns="http://www.w3.org/2000/svg" xmlns:xlink="http://www.w3.org/1999/xlink" x="0px" y="0px"
	 width="134px" height="151px" viewBox="0 -21.25 134 152" enable-background="new 0 -21.25 134 152"
	 xml:space="preserve">
<path stroke-width="1.25" stroke="#484848" fill="#484848" d="M66.604-9.234c-2.009,0-2.4-0.67-2.4-0.67s-3.684-8.039-4.354-9.042c-0.67-1.004-2.121-1.556-2.121-1.556
	s-48.502-0.455-50.456,0c-1.955,0.455-2.566,1.556-2.566,1.556L0.083-9.234v104.14v11.979v23.402h134v-23.402V94.905V69.176v-78.41
	C134.084-9.234,68.614-9.234,66.604-9.234z"/>
</svg>
