<?xml version="1.0" encoding="utf-8"?>
<!-- Generator: Adobe Illustrator 15.1.0, SVG Export Plug-In . SVG Version: 6.00 Build 0)  -->
<!DOCTYPE svg PUBLIC "-//W3C//DTD SVG 1.1//EN" "http://www.w3.org/Graphics/SVG/1.1/DTD/svg11.dtd">
<svg version="1.1" id="Layer_1" xmlns="http://www.w3.org/2000/svg" xmlns:xlink="http://www.w3.org/1999/xlink" x="0px" y="0px"
	 width="80px" height="80px" viewBox="0 0 80 80" enable-background="new 0 0 80 80" xml:space="preserve">
<g class="fsi-pages-link-shape">
	<circle cx="39.905" cy="41.107" r="30"/>
	<g>
		<ellipse fill="#FFFFFF" cx="34.23" cy="51.443" rx="1.953" ry="2.187"/>
		<ellipse fill="#FFFFFF" cx="45.33" cy="51.443" rx="1.955" ry="2.187"/>
		<path fill="#FFFFFF" d="M51.166,32.41l-1.529,10.71c-0.041,0.311-0.449,0.498-0.898,0.418c-0.057-0.01-0.104-0.033-0.154-0.053
			c-0.09,0.037-0.184,0.064-0.277,0.064H31.168l0.647,2.74h15.757c0.459,0,0.828,0.41,0.828,0.93c0,0.51-0.369,0.928-0.828,0.928
			H31.197c-0.023,0-0.038-0.016-0.061-0.021c-0.073-0.004-0.142-0.018-0.21-0.043c-0.027-0.014-0.053-0.016-0.077-0.029
			c-0.087-0.043-0.162-0.102-0.231-0.176c-0.005-0.002-0.006-0.004-0.01-0.01c-0.105-0.111-0.19-0.244-0.229-0.416l-4.031-17.013
			h-2.269c-0.456,0-0.829-0.415-0.829-0.928c0-0.511,0.372-0.927,0.829-0.927h2.838c0.025,0,0.046,0.015,0.072,0.018
			c0.367,0.001,0.7,0.26,0.799,0.672l0.432,1.818h22.165c0.477,0,0.865,0.416,0.865,0.928C51.25,32.16,51.215,32.292,51.166,32.41z"
			/>
		<rect x="36.523" y="32.95" width="5.494" height="3.709"/>
		<polygon points="42.699,41.696 48.162,41.696 48.773,37.422 42.699,37.422 		"/>
		<rect x="36.523" y="37.422" width="5.494" height="4.274"/>
		<polygon points="29.536,36.659 35.844,36.659 35.844,32.95 28.657,32.95 		"/>
		<path d="M30.74,41.745c0.074-0.021,0.146-0.049,0.226-0.049h4.877v-4.274h-6.126L30.74,41.745z"/>
		<polygon points="42.699,36.659 48.881,36.659 49.406,32.95 42.699,32.95 		"/>
	</g>
</g>
</svg>
