<?xml version="1.0" encoding="utf-8"?>
<!-- Generator: Adobe Illustrator 23.0.2, SVG Export Plug-In . SVG Version: 6.00 Build 0)  -->
<svg version="1.1" id="Layer_1" xmlns="http://www.w3.org/2000/svg" xmlns:xlink="http://www.w3.org/1999/xlink" x="0px" y="0px"
	 width="80px" height="80px" viewBox="0 0 80 80" enable-background="new 0 0 80 80" xml:space="preserve">
<g class="fsi-pages-link-shape">
<path d="M69.5,59.5h-59c-2.2,0-4-1.8-4-4v-31c0-2.2,1.8-4,4-4h59c2.2,0,4,1.8,4,4v31C73.5,57.7,71.7,59.5,69.5,59.5z"/>
<g>
	<g>
		<g>
			<path fill="#FFFFFF" d="M58.8,24.5H21.2c-0.9,0-1.6,0.7-1.6,1.6v27.9c0,0.9,0.7,1.6,1.6,1.6h37.7c0.9,0,1.6-0.7,1.6-1.6V26.1
				C60.4,25.2,59.7,24.5,58.8,24.5z M30,47.8h-2.6v1.5h2.2v0.6h-2.2v2.1h-0.6v-4.7H30V47.8z M34.5,49.9c0,0.5-0.1,0.8-0.2,1.1
				c-0.1,0.3-0.3,0.5-0.6,0.7c-0.3,0.2-0.6,0.3-1.1,0.3c-0.4,0-0.8-0.1-1.1-0.2c-0.3-0.2-0.5-0.4-0.6-0.7c-0.1-0.3-0.2-0.7-0.2-1.2
				v-2.7h0.6v2.7c0,0.4,0,0.7,0.1,0.9c0.1,0.2,0.2,0.3,0.4,0.4c0.2,0.1,0.4,0.2,0.7,0.2c0.5,0,0.8-0.1,1-0.3
				c0.2-0.2,0.3-0.6,0.3-1.2v-2.7h0.6V49.9z M38.5,51.9h-2.9v-4.7h0.6v4.2h2.3V51.9z M42.1,51.9h-2.9v-4.7h0.6v4.2h2.3V51.9z
				 M48.4,51.9h-1v-2.1h-1.9v2.1h-1v-4.7h1v1.9h1.9v-1.9h1V51.9z M53.2,50.6c-0.1,0.3-0.3,0.6-0.5,0.8c-0.2,0.2-0.4,0.3-0.7,0.4
				c-0.2,0.1-0.5,0.1-0.8,0.1h-1.8v-4.7h1.7c0.4,0,0.7,0,0.9,0.1c0.3,0.1,0.5,0.2,0.7,0.4c0.2,0.2,0.3,0.5,0.4,0.8
				c0.1,0.3,0.2,0.7,0.2,1.1C53.4,50,53.3,50.3,53.2,50.6z M57.8,43.8H22.2V26.3h35.5V43.8z"/>
		</g>
		<g>
			<path fill="#FFFFFF" d="M52,48.3c-0.1-0.1-0.3-0.2-0.4-0.2c-0.1,0-0.4,0-0.8,0h-0.4v3.1h0.7c0.3,0,0.5,0,0.6,0
				c0.2,0,0.3-0.1,0.4-0.2c0.1-0.1,0.2-0.2,0.2-0.5c0.1-0.2,0.1-0.5,0.1-0.9c0-0.4,0-0.6-0.1-0.8C52.2,48.5,52.1,48.4,52,48.3z"/>
		</g>
	</g>
	<g>
		<path fill="#FFFFFF" d="M27.8,38.7h-1.7v-6.2c-0.6,0.6-1.3,1-2.1,1.3v-1.5c0.4-0.1,0.9-0.4,1.4-0.8c0.5-0.4,0.9-0.9,1-1.4h1.3V38.7z"
			/>
		<path fill="#FFFFFF" d="M33,30c0.8,0,1.5,0.3,2,0.9c0.6,0.7,0.8,1.9,0.8,3.5c0,1.6-0.3,2.8-0.8,3.5c-0.5,0.6-1.1,0.9-2,0.9
			c-0.8,0-1.5-0.3-2-1c-0.5-0.6-0.8-1.8-0.8-3.4c0-1.6,0.3-2.8,0.8-3.5C31.5,30.3,32.2,30,33,30z M33,31.4c-0.2,0-0.4,0.1-0.5,0.2
			c-0.2,0.1-0.3,0.4-0.4,0.7C32,32.7,32,33.4,32,34.5c0,1,0.1,1.7,0.2,2.1c0.1,0.4,0.2,0.6,0.4,0.8c0.2,0.1,0.3,0.2,0.5,0.2
			c0.2,0,0.4-0.1,0.5-0.2c0.2-0.1,0.3-0.4,0.4-0.7c0.1-0.4,0.2-1.1,0.2-2.2c0-1-0.1-1.7-0.2-2.1c-0.1-0.4-0.2-0.6-0.4-0.8
			C33.4,31.5,33.2,31.4,33,31.4z"/>
		<path fill="#FFFFFF" d="M38.3,34.1c-0.4-0.2-0.7-0.4-0.9-0.7c-0.2-0.3-0.3-0.7-0.3-1c0-0.6,0.2-1.2,0.7-1.6c0.4-0.4,1.1-0.6,1.9-0.6
			c0.8,0,1.5,0.2,1.9,0.6c0.5,0.4,0.7,1,0.7,1.6c0,0.4-0.1,0.8-0.3,1.1c-0.2,0.3-0.5,0.5-0.9,0.7c0.5,0.2,0.8,0.5,1.1,0.8
			c0.2,0.4,0.4,0.8,0.4,1.3c0,0.8-0.3,1.4-0.8,1.9c-0.5,0.5-1.2,0.7-2,0.7c-0.8,0-1.4-0.2-2-0.6c-0.6-0.5-0.9-1.2-0.9-2
			c0-0.5,0.1-0.9,0.3-1.3C37.5,34.6,37.8,34.3,38.3,34.1z M38.5,36.1c0,0.5,0.1,0.8,0.3,1.1c0.2,0.3,0.5,0.4,0.9,0.4
			c0.3,0,0.6-0.1,0.8-0.4c0.2-0.2,0.3-0.6,0.3-1.1c0-0.4-0.1-0.7-0.3-1c-0.2-0.2-0.5-0.4-0.9-0.4c-0.4,0-0.7,0.1-0.9,0.4
			C38.6,35.5,38.5,35.8,38.5,36.1z M38.7,32.4c0,0.3,0.1,0.6,0.3,0.8c0.2,0.2,0.4,0.3,0.7,0.3c0.3,0,0.6-0.1,0.8-0.3
			c0.2-0.2,0.3-0.4,0.3-0.8c0-0.3-0.1-0.6-0.3-0.7c-0.2-0.2-0.4-0.3-0.7-0.3c-0.3,0-0.6,0.1-0.8,0.3C38.8,31.8,38.7,32.1,38.7,32.4z
			"/>
		<path fill="#FFFFFF" d="M46.4,30c0.8,0,1.5,0.3,2,0.9c0.6,0.7,0.8,1.9,0.8,3.5c0,1.6-0.3,2.8-0.8,3.5c-0.5,0.6-1.1,0.9-2,0.9
			c-0.8,0-1.5-0.3-2-1c-0.5-0.6-0.8-1.8-0.8-3.4c0-1.6,0.3-2.8,0.8-3.5C44.9,30.3,45.6,30,46.4,30z M46.4,31.4
			c-0.2,0-0.4,0.1-0.5,0.2c-0.2,0.1-0.3,0.4-0.4,0.7c-0.1,0.4-0.2,1.1-0.2,2.2c0,1,0.1,1.7,0.2,2.1c0.1,0.4,0.2,0.6,0.4,0.8
			c0.2,0.1,0.3,0.2,0.5,0.2c0.2,0,0.4-0.1,0.5-0.2c0.2-0.1,0.3-0.4,0.4-0.7c0.1-0.4,0.2-1.1,0.2-2.2c0-1-0.1-1.7-0.2-2.1
			c-0.1-0.4-0.2-0.6-0.4-0.8C46.8,31.5,46.6,31.4,46.4,31.4z"/>
		<path fill="#FFFFFF" d="M50.6,41.1v-8.6h1v0.8c0.2-0.3,0.5-0.6,0.8-0.7s0.6-0.2,1-0.2c0.5,0,1,0.1,1.4,0.4c0.4,0.3,0.7,0.7,0.9,1.2
			c0.2,0.5,0.3,1,0.3,1.6c0,0.6-0.1,1.2-0.3,1.7c-0.2,0.5-0.6,0.9-1,1.2c-0.4,0.3-0.9,0.4-1.4,0.4c-0.4,0-0.7-0.1-0.9-0.2
			c-0.3-0.1-0.5-0.3-0.7-0.6v3H50.6z M51.6,35.6c0,0.8,0.2,1.4,0.5,1.8c0.3,0.4,0.7,0.6,1.2,0.6c0.5,0,0.9-0.2,1.2-0.6
			c0.3-0.4,0.5-1,0.5-1.8c0-0.8-0.2-1.4-0.5-1.8c-0.3-0.4-0.7-0.6-1.2-0.6c-0.5,0-0.8,0.2-1.2,0.6C51.7,34.2,51.6,34.8,51.6,35.6z"
			/>
	</g>
</g>
</g>
</svg>
