<?xml version="1.0" encoding="utf-8"?>
<!-- Generator: Adobe Illustrator 15.1.0, SVG Export Plug-In . SVG Version: 6.00 Build 0)  -->
<!DOCTYPE svg PUBLIC "-//W3C//DTD SVG 1.1//EN" "http://www.w3.org/Graphics/SVG/1.1/DTD/svg11.dtd">
<svg version="1.1" id="Layer_1" xmlns="http://www.w3.org/2000/svg" xmlns:xlink="http://www.w3.org/1999/xlink" x="0px" y="0px"
	 width="44.641px" height="48.064px" viewBox="0 0 44.641 48.064" enable-background="new 0 0 44.641 48.064" xml:space="preserve">
<g>
	<polygon fill="#FFFF33" points="22.742,35.159 10.753,42.389 13.924,28.752 3.344,19.585 17.292,18.386 22.742,5.491 28.19,18.386 
		42.14,19.585 31.559,28.752 34.73,42.389 	"/>
	<path d="M35.485,43.428l-12.743-7.685L9.998,43.428l3.371-14.495L2.122,19.188l14.827-1.273l5.793-13.708l5.791,13.708
		l14.829,1.273l-11.247,9.745L35.485,43.428z M4.565,19.982l9.914,8.59L11.508,41.35l11.234-6.774l11.233,6.774l-2.972-12.778
		l9.915-8.59l-13.071-1.123L22.742,6.776l-5.107,12.083L4.565,19.982z"/>
</g>
</svg>
